1705771317,204055
1705771330,216777
1705771343,229819
1705771348,234831
1705771367,253978
1705771369,255696
1705771370,256623
1705771371,257433
1705771372,258488
1705771373,259771
1705771375,261435
1705771375,262278
1705771376,262740
1705771376,262958
1705771376,263076
1705771376,263186
1705771377,263332
1705771377,263494
1705771377,263922
1705771378,264791
1705771378,264785
1705771378,264789
1705771378,264800
1705771378,264941
1705771378,265269
1705771379,265374
1705771379,265529
1705771379,265730
1705771380,267003
1705771380,267145
1705771381,267295
1705771381,267916
1705771496,178361
1705771505,175246
1705771513,170460
1705771519,170982
1705771552,184561
1705771584,212054
1705771586,217462
1705771588,215166
1705771591,216843
1705771596,225922
1705771596,220670
1705771598,222081
1705771599,222863
1705771602,226393
1705771603,225946
1705771609,238629
1705771615,236397
1705771617,240129
1705771618,239344
1705771620,241443
1705771620,241323
1705771623,244318
1705771623,245256
1705771624,245685
1705771628,247525
1705771632,250889
1705771632,256002
1705771633,254662
1705771633,252667
1705771633,252665
1705771634,255819
1705771634,257240
1705771695,199415
1705771698,192531
1705771703,189535
1705771708,189287
1705771738,185971
1705771775,191333
1705771783,196710
1705771787,199099
1705771791,199839
1705771797,200878
1705771801,201789
1705771802,205653
1705771804,206025
1705771807,204860
1705771808,205633
1705771812,202843
1705771816,200971
1705771820,203400
1705771821,202892
1705771823,202581
1705771823,203255
1705771824,200539
1705771824,200747
1705771825,201717
1705771826,198248
1705771833,201457
1705771837,203617
1705771837,203757
1705771842,208898
1705771843,208802
1705771843,210889
1705771844,209885
1705771880,182043
1705771882,186938
1705771882,179180
1705771885,176659
1705771915,177379
1705771953,177952
1705771963,180154
1705771965,177692
1705771968,176579
1705771973,175935
1705771980,178746
1705771989,187469
1705771994,189089
1705771996,189084
1705771996,188005
1705772001,189309
1705772004,188092
1705772016,196002
1705772017,196227
1705772021,198316
1705772022,197633
1705772023,200025
1705772023,199417
1705772024,197668
1705772025,200420
1705772030,196130
1705772031,194249
1705772031,194405
1705772033,191457
1705772035,192310
1705772036,192739
1705772036,192208
1705772059,179400
1705772065,183490
1705772066,183614
1705772067,182224
1705772092,176715
1705772134,180508
1705772147,183838
1705772147,182349
1705772154,186384
1705772160,186996
1705772160,180508
1705772169,179288
1705772169,175860
1705772174,177981
1705772174,178067
1705772182,180534
1705772183,178826
1705772198,182361
1705772203,185817
1705772211,189901
1705772213,190520
1705772216,193388
1705772218,194296
1705772219,194439
1705772220,196390
1705772226,196691
1705772228,194644
1705772228,197556
1705772229,197681
1705772230,195002
1705772232,195718
1705772232,196017
1705772241,182126
1705772251,185371
1705772254,188191
1705772255,187854
1705772277,184879
1705772313,179340
1705772328,180934
1705772329,182384
1705772333,178620
1705772348,187557
1705772349,189034
1705772357,188585
1705772360,190288
1705772366,191913
1705772366,192129
1705772370,186842
1705772370,188001
1705772382,184024
1705772387,183722
1705772395,183620
1705772399,186742
1705772405,188677
1705772407,188135
1705772408,190041
1705772409,188566
1705772429,202937
1705772431,203214
1705772433,204531
1705772436,207471
1705772439,208273
1705772439,207677
1705772439,207507
1705772440,198589
1705772441,190062
1705772441,187224
1705772441,186333
1705772453,176498
1705772492,178952
1705772512,183923
1705772516,186191
1705772516,183135
1705772535,187222
1705772537,188324
1705772538,180785
1705772540,179825
1705772549,182880
1705772551,184594
1705772553,183095
1705772553,183498
1705772560,177118
1705772567,180119
1705772573,174051
1705772574,179000
1705772577,172373
1705772598,190755
1705772599,191641
1705772601,191912
1705772606,176991
1705772609,177873
1705772614,181054
1705772616,179409
1705772625,186656
1705772627,186879
1705772629,190150
1705772630,188371
1705772631,189251
1705772631,189742
1705772631,191600
1705772634,180640
1705772667,174995
1705772686,173625
1705772696,179885
1705772696,180470
1705772710,175563
1705772716,178690
1705772717,177853
1705772718,179875
1705772725,175967
1705772727,175755
1705772731,177760
1705772733,179459
1705772736,176375
1705772743,176187
1705772755,180898
1705772755,181889
1705772757,179850
1705772781,182530
1705772781,181616
1705772782,181297
1705772783,177093
1705772784,175428
1705772790,176247
1705772792,176046
1705772804,178556
1705772806,179221
1705772813,183149
1705772813,183749
1705772814,183780
1705772815,183717
1705772815,184777
1705772817,183581
1705772843,176187
1705772862,176719
1705772876,179795
1705772876,180003
1705772887,176765
1705772894,178128
1705772897,179729
1705772898,180241
1705772903,177672
1705772904,177665
1705772906,175511
1705772909,176913
1705772914,177734
1705772918,174902
1705772937,182803
1705772940,184745
1705772940,183151
1705772962,181322
1705772962,181349
1705772966,184323
1705772967,183174
1705772968,184578
1705772970,179862
1705772971,179593
1705772981,176740
1705772983,177006
1705772994,181738
1705772997,183270
1705772998,183282
1705772999,183427
1705773001,185882
1705773003,186069
1705773021,178289
1705773037,174978
1705773055,179172
1705773056,179480
1705773063,175484
1705773071,177396
1705773074,177104
1705773075,177158
1705773080,177246
1705773086,181080
1705773091,184224
1705773096,186678
1705773098,184324
1705773099,181461
1705773113,175198
1705773119,178832
1705773119,178798
1705773141,178971
1705773141,179224
1705773149,182141
1705773149,181266
1705773152,184079
1705773154,182616
1705773154,183927
1705773162,181761
1705773164,180994
1705773174,179288
1705773179,181912
1705773181,183083
1705773182,183372
1705773184,183533
1705773185,181375
1705773197,175403
1705773213,175496
1705773233,178319
1705773235,179592
1705773240,177314
1705773252,181131
1705773255,180756
1705773258,183169
1705773259,178620
1705773263,177377
1705773267,176246
1705773273,176876
1705773278,179825
1705773278,178607
1705773287,174311
1705773295,176213
1705773295,176189
1705773320,178551
1705773320,178479
1705773327,178032
1705773331,182438
1705773340,188211
1705773344,189846
1705773344,190082
1705773345,183007
1705773346,181719
1705773349,175100
1705773352,173625
1705773355,174234
1705773356,174174
1705773361,176537
1705773362,177461
1705773371,173860
1705773385,172126
1705773409,175372
1705773413,177511
1705773416,175864
1705773430,177633
1705773431,176208
1705773438,179324
1705773438,179893
1705773439,176062
1705773442,174870
1705773448,174651
1705773456,177848
1705773457,178881
1705773461,173635
1705773470,174749
1705773470,175236
1705773500,180373
1705773501,180796
1705773502,175087
1705773507,176031
1705773517,176657
1705773525,181253
1705773527,181145
1705773527,182609
1705773527,181109
1705773528,179349
1705773529,177301
1705773532,177198
1705773533,176268
1705773538,176844
1705773541,179152
1705773544,173915
1705773562,177377
1705773585,175987
1705773590,174621
1705773591,177884
1705773604,174464
1705773605,173370
1705773615,177451
1705773620,181210
1705773621,182795
1705773622,179842
1705773624,176637
1705773632,176422
1705773634,176974
1705773635,174247
1705773653,182564
1705773653,182949
1705773679,178824
1705773679,179366
1705773681,178837
1705773684,176983
1705773692,175605
1705773706,181286
1705773710,183668
1705773711,183852
1705773712,185490
1705773713,185200
1705773714,184279
1705773720,187688
1705773721,188646
1705773725,187605
1705773726,181278
1705773727,185416
1705773740,177828
1705773759,174022
1705773765,174998
1705773767,176366
1705773782,177047
1705773783,178190
1705773789,173367
1705773794,173510
1705773806,184432
1705773807,184838
1705773808,183833
1705773815,182483
1705773817,181851
1705773817,183173
1705773831,177908
1705773831,178848
1705773861,181572
1705773861,181918
1705773864,183719
1705773867,182508
1705773872,179877
1705773883,176961
1705773892,181375
1705773892,181118
1705773898,185797
1705773899,185410
1705773902,189099
1705773905,185262
1705773907,185215
1705773912,185969
1705773912,186749
1705773914,186782
1705773918,177679
1705773939,180221
1705773947,181186
1705773948,181490
1705773960,178713
1705773963,180643
1705773967,178517
1705773970,176209
1705773989,183893
1705773993,186532
1705773995,187261
1705774000,185267
1705774002,184902
1705774002,184880
1705774010,178354
1705774010,178760
1705774039,175058
1705774041,180208
1705774042,180626
1705774046,179337
1705774049,176931
1705774060,177114
1705774070,178108
1705774071,179437
1705774077,178890
1705774079,179369
1705774082,179135
1705774084,179275
1705774086,179959
1705774091,179163
1705774095,182935
1705774096,178470
1705774097,183251
1705774111,172582
1705774119,172779
1705774123,174645
1705774133,173022
1705774137,174017
1705774140,172715
1705774143,173469
1705774165,175272
1705774168,175353
1705774171,175666
1705774177,176910
1705774181,179789
1705774181,179662
1705774187,177609
1705774188,177501
1705774216,176691
1705774221,179561
1705774222,180289
1705774224,177956
1705774225,175258
1705774237,176264
1705774247,177706
1705774248,177221
1705774251,174323
1705774252,173266
1705774253,171929
1705774257,172829
1705774261,174159
1705774264,172885
1705774274,178898
1705774274,177556
1705774276,179471
1705774283,171615
1705774291,171357
1705774297,173936
1705774306,172816
1705774312,174300
1705774312,172093
1705774315,171466
1705774339,174356
1705774342,173270
1705774345,174025
1705774350,172971
1705774357,175826
1705774357,175876
1705774363,175425
1705774363,175553
1705774388,171885
1705774396,175643
1705774401,178836
1705774406,181112
1705774406,182436
1705774412,175783
1705774422,174315
1705774423,174056
1705774427,175416
1705774428,176508
1705774428,174477
1705774430,172489
1705774433,172562
1705774436,172305
1705774448,174225
1705774452,178671
1705774455,178742
1705774457,173588
1705774463,172219
1705774470,173143
1705774481,174945
1705774492,176644
1705774492,179692
1705774492,180792
1705774513,173745
1705774515,173842
1705774519,174029
1705774525,174994
1705774538,180356
1705774538,180338
1705774542,179336
1705774542,179391
1705774564,176480
1705774570,173899
1705774574,173209
1705774585,179206
1705774586,180038
1705774591,178408
1705774597,175165
1705774598,175457
1705774606,178777
1705774610,182636
1705774611,182610
1705774611,181358
1705774616,182490
1705774618,181899
1705774622,173971
1705774638,183059
1705774638,181759
1705774641,188247
1705774643,179513
1705774646,175868
1705774652,171318
1705774671,179423
1705774672,180636
1705774673,180915
1705774687,174219
1705774690,174911
1705774696,177366
1705774701,176487
