1702507962,139816
1702507969,146479
1702507971,148811
1702507971,148503
1702507971,148465
1702507971,148421
1702507971,149228
1702507972,149818
1702507972,149224
1702507977,154985
1702507978,156759
1702507978,155229
1702507978,156661
1702507981,157636
1702507983,159115
1702507983,159071
1702508087,125306
1702508095,125730
1702508103,132064
1702508104,132436
1702508104,132820
1702508104,132517
1702508104,132676
1702508104,132221
1702508105,133943
1702508109,132780
1702508117,138117
1702508118,139253
1702508118,139231
1702508118,136942
1702508119,135808
1702508119,135682
1702508212,124975
1702508221,125983
1702508229,126180
1702508234,130382
1702508235,130825
1702508235,131499
1702508236,131481
1702508236,131492
1702508237,131203
1702508242,132141
1702508247,130021
1702508248,130847
1702508249,131573
1702508251,132835
1702508252,132812
1702508252,133191
1702508338,126059
1702508347,125915
1702508355,125488
1702508361,126046
1702508364,129163
1702508365,129110
1702508365,129395
1702508366,130252
1702508367,129772
1702508372,130210
1702508376,128854
1702508377,128541
1702508378,128618
1702508382,130455
1702508383,131201
1702508383,131466
1702508465,126299
1702508472,125521
1702508480,125278
1702508487,126319
1702508490,125740
1702508492,126800
1702508494,128139
1702508494,127719
1702508496,129842
1702508501,129556
1702508505,129545
1702508506,128795
1702508508,129410
1702508511,129474
1702508513,130300
1702508514,130413
1702508591,126052
1702508598,126204
1702508606,126001
1702508613,125828
1702508616,126237
1702508617,125668
1702508621,127788
1702508622,128290
1702508625,128711
1702508631,129040
1702508637,131511
1702508638,131721
1702508638,130590
1702508641,129732
1702508643,129839
1702508645,130999
1702508718,127576
1702508726,127121
1702508732,126100
1702508739,125861
1702508743,126982
1702508744,126217
1702508749,127197
1702508749,127121
1702508754,128629
1702508760,128916
1702508767,130036
1702508768,130082
1702508768,129900
1702508771,129672
1702508773,129259
1702508775,130243
1702508845,126585
1702508853,127823
1702508859,126618
1702508865,125980
1702508871,126853
1702508871,128184
1702508875,126013
1702508876,126631
1702508882,128255
1702508889,129653
1702508899,132339
1702508900,131966
1702508900,131981
1702508901,129961
1702508903,130472
1702508905,130319
1702508972,126702
1702508979,126044
1702508987,127705
1702508990,125693
1702508996,125620
1702508997,126384
1702509001,126256
1702509003,126887
1702509011,128539
1702509017,128056
1702509029,130109
1702509032,132086
1702509032,132017
1702509033,131902
1702509034,130772
1702509036,130639
1702509098,126462
1702509105,125640
1702509113,126597
1702509117,126552
1702509122,125946
1702509124,126694
1702509128,126508
1702509129,126413
1702509139,128513
1702509145,127884
1702509158,128705
1702509161,129119
1702509163,130078
1702509164,130706
1702509164,130425
1702509168,131520
1702509226,127316
1702509232,126963
1702509239,126256
1702509244,126536
1702509250,127440
1702509252,127398
1702509254,126416
1702509256,126644
1702509268,128651
1702509274,128097
1702509287,128994
1702509291,129601
1702509293,130130
1702509294,130293
1702509295,130609
1702509298,130006
1702509351,125668
1702509359,126599
1702509365,125637
1702509369,125561
1702509376,126409
1702509379,127013
1702509381,126888
1702509383,126995
1702509396,128364
1702509402,128229
1702509417,129362
1702509420,129405
1702509423,130314
1702509426,131648
1702509427,131196
1702509429,130814
1702509478,126582
1702509486,126761
1702509491,126301
1702509496,126365
1702509503,127062
1702509506,127699
1702509508,127305
1702509510,127370
1702509526,129131
1702509530,128328
1702509546,129439
1702509551,130401
1702509554,131157
1702509557,130776
1702509558,131042
1702509560,130741
1702509604,125972
1702509612,126381
1702509618,126421
1702509621,125703
1702509630,126594
1702509633,126894
1702509634,126056
1702509637,127138
1702509655,129051
1702509659,129236
1702509675,128827
1702509681,130221
1702509685,130031
1702509687,129494
1702509687,129527
1702509689,129829
1702509729,125409
1702509738,126302
1702509744,126498
1702509747,125772
1702509756,126464
1702509760,126621
1702509761,126666
1702509764,126125
1702509784,128807
1702509788,128487
1702509805,129497
1702509811,129339
1702509814,129048
1702509815,128568
1702509816,128738
1702509819,129353
1702509855,125000
1702509864,125463
1702509871,126604
1702509873,125732
1702509882,125836
1702509886,126123
1702509887,126303
1702509889,125699
1702509913,128926
1702509916,128065
1702509934,129156
1702509940,129224
1702509943,129341
1702509944,128335
1702509945,128537
1702509949,129858
1702509980,125138
1702509989,125449
1702509998,126540
1702509998,125361
1702510007,125080
1702510012,125851
1702510013,125907
1702510016,126678
1702510042,129118
1702510045,129125
1702510063,128642
1702510068,128012
1702510073,129845
1702510074,130309
1702510074,129603
1702510078,129419
1702510105,125485
1702510115,125336
1702510125,127562
1702510126,127139
1702510134,126731
1702510138,126164
1702510139,125972
1702510143,126457
1702510171,128741
1702510174,128442
1702510192,128852
1702510197,128969
1702510202,129054
1702510205,130989
1702510205,130946
1702510208,129797
1702510231,125640
1702510241,125664
1702510252,126745
1702510252,126730
1702510261,126595
1702510264,125687
1702510265,125791
1702510269,126734
1702510301,130012
1702510303,128909
1702510320,128779
1702510326,128978
1702510331,129010
1702510335,129798
1702510336,130407
1702510337,128659
1702510357,125783
1702510367,126423
1702510379,126425
1702510380,127355
1702510388,126811
1702510390,125887
1702510391,125955
1702510396,126468
1702510429,128784
1702510432,128823
1702510449,128825
1702510455,128867
1702510460,128580
1702510464,128634
1702510464,128538
1702510466,128990
1702510482,125445
1702510493,125904
1702510504,124902
1702510506,125556
1702510514,126587
1702510516,126436
1702510518,126657
1702510522,126581
1702510559,129557
1702510562,129685
1702510578,128170
1702510584,128978
1702510589,128715
1702510593,129387
1702510594,129239
1702510595,128953
1702510608,125727
1702510619,126027
1702510629,125538
1702510632,125917
1702510641,126807
1702510642,125977
1702510645,126756
1702510649,126285
1702510689,130131
1702510691,129100
1702510706,128251
1702510712,128611
1702510717,128590
1702510722,129269
1702510723,129122
1702510724,129400
1702510734,125319
1702510745,125602
1702510754,125134
1702510758,126099
1702510767,125713
1702510769,126366
1702510771,125792
1702510776,126690
1702510819,129288
1702510819,128608
1702510834,128420
1702510841,128486
1702510846,128404
1702510851,128438
1702510852,128778
1702510853,128722
1702510859,125247
1702510870,125409
1702510879,124792
1702510883,125531
1702510892,125327
1702510895,126235
1702510897,126169
1702510902,126683
1702510947,128506
1702510948,128474
1702510963,128318
1702510969,128163
1702510974,128317
1702510979,128319
1702510980,128161
1702510982,128745
1702510985,125682
1702510996,125950
1702511005,125133
1702511009,125164
1702511017,124748
1702511021,125485
1702511022,125191
1702511029,126138
1702511077,129493
1702511077,129289
1702511091,128524
1702511098,128343
1702511103,128649
1702511108,129243
1702511109,129327
1702511112,126958
1702511112,130450
1702511123,126481
1702511131,126099
1702511134,125744
1702511143,125856
1702511148,126854
1702511148,126393
1702511155,125860
1702511206,129246
1702511206,129118
1702511220,128245
1702511226,128129
1702511231,128244
1702511237,128136
1702511239,127137
1702511239,130014
1702511241,129034
1702511248,125530
1702511256,125752
1702511259,124940
1702511268,125324
1702511275,126670
1702511275,127408
1702511280,125850
1702511336,129619
1702511336,130185
1702511348,128248
1702511354,128429
1702511360,128958
1702511365,125873
1702511366,129216
1702511369,129262
1702511370,128623
1702511375,126531
1702511382,125878
1702511385,125465
1702511393,124970
1702511402,126866
1702511403,127836
1702511406,125581
