1702401857,238999
1702401864,243726
1702401865,247525
1702401875,256836
1702401877,257942
1702401877,257770
1702401877,256773
1702401878,260413
1702401888,267916
1702401888,268850
1702401890,265635
1702401894,272477
1702401898,280780
1702401925,301725
1702401927,302153
1702401927,294649
1702401928,310114
1702401942,324589
1702401942,321867
1702401943,320845
1702401945,318680
1702401946,315683
1702401947,327535
1702401972,345121
1702401973,335355
1702401978,348795
1702401979,337638
1702401991,362987
1702401992,367996
1702401993,370826
1702401993,352960
1702401993,329658
1702402000,381852
1702402004,359839
1702402005,368580
1702402006,351061
1702402013,392365
1702402014,355124
1702402014,380528
1702402017,366816
1702402017,351211
1702402029,367545
1702402030,350326
1702402033,163522
1702402038,331575
1702402039,309420
1702402056,165153
1702402057,382533
1702402057,162927
1702402062,337686
1702402062,170213
1702402062,381932
1702402062,169949
1702402123,100744
1702402124,156060
1702402125,132508
1702402129,71925
1702402129,186946
1702402129,112488
1702402130,138404
1702402130,151444
1702402130,115427
1702402132,69986
1702402135,155640
1702402140,196919
1702402140,77930
1702402141,213482
1702402141,124642
1702402153,146704
1702402155,115215
1702402156,115051
1702402168,176275
1702402168,221826
1702402168,138678
1702402170,158205
1702402183,126769
1702402183,126147
1702402193,188147
1702402194,161014
1702402202,168817
1702402208,66314
1702402208,67802
1702402208,72952
1702402212,71789
1702402217,92945
1702402217,88083
1702402217,276484
1702402217,325548
1702402218,76836
1702402220,49461
1702402229,96751
1702402229,73128
1702402229,105482
1702402230,74781
1702402234,102370
1702402236,345968
1702402245,118568
1702402246,52824
1702402246,114446
1702402254,85303
1702402259,65090
1702402259,75854
1702402259,76126
1702402260,198845
1702402275,145976
1702402282,73859
1702402282,64807
1702402282,65011
1702402309,75199
1702402310,63861
1702402311,65624
1702402312,94638
1702402314,96307
1702402315,85758
1702402325,65709
1702402325,64667
1702402325,105147
1702402325,156777
1702402328,98298
1702402328,74669
1702402330,94025
1702402330,71107
1702402331,71474
1702402336,118148
1702402340,58405
1702402341,66167
1702402349,661094
1702402351,148373
1702402363,674963
1702402389,159734
1702402389,106734
1702402389,177156
1702402389,181664
1702402397,71274
1702402397,66630
1702402407,161233
1702402407,93557
1702402407,199006
1702402412,349419
1702402414,280871
1702402447,432720
1702402466,117309
1702402466,103759
1702402472,58260
1702402472,189578
1702402473,122820
1702402474,161313
1702402474,345770
1702402474,159853
1702402475,67326
1702402475,77783
1702402475,77312
1702402477,87975
1702402481,313017
1702402481,69277
1702402482,92266
1702402483,75663
1702402483,155321
1702402484,148474
1702402487,79528
1702402487,158875
1702402488,333979
1702402489,179529
1702402499,110150
1702402503,499298
1702402539,72661
1702402539,64653
1702402544,550563
1702402547,63974
1702402547,72741
1702402547,74015
1702402547,217368
1702402548,100948
1702402548,73605
1702402548,64090
1702402548,67120
1702402548,65318
1702402548,238928
1702402551,78733
1702402551,63371
1702402551,84547
1702402552,71067
1702402553,71430
1702402555,229841
1702402558,227877
1702402558,59248
1702402565,336504
1702402587,892855
1702402623,650169
1702402628,701340
1702402634,78916
1702402634,86761
1702402634,83505
1702402635,87494
1702402635,84133
1702402635,84355
1702402635,87040
1702402635,87905
1702402636,83566
1702402636,161356
1702402636,664233
1702402637,77735
1702402637,71793
1702402637,88871
1702402648,99148
1702402650,101803
1702402663,975749
1702402666,991311
1702402686,998200
1702402706,754946
1702402708,714851
1702402711,74779
1702402713,235567
1702402713,1014907
1702402717,1017599
1702402721,85408
1702402721,83920
1702402721,85945
1702402722,86437
1702402722,71382
1702402722,85658
1702402722,235710
1702402726,91294
1702402727,89380
1702402730,82661
1702402730,43871
1702402748,1096157
1702402752,89175
1702402766,841589
1702402777,71267
1702402777,230025
1702402778,142717
1702402778,290421
1702402782,278557
1702402783,457756
1702402800,86784
1702402806,83750
1702402808,59108
1702402808,76829
1702402808,85900
1702402808,55270
1702402808,173481
1702402808,141737
1702402808,86254
1702402809,95501
1702402809,82027
1702402811,89583
1702402811,80561
1702402851,142939
1702402852,217787
1702402852,907433
1702402855,218415
1702402855,529582
1702402858,137031
1702402863,141077
1702402867,323252
1702402868,59644
1702402883,74967
1702402910,131351
1702402911,103602
1702402919,135822
1702402920,111420
1702402921,121399
1702402921,53845
1702402922,194884
1702402922,111455
1702402927,118949
1702402928,121347
1702402928,65110
1702402928,77649
1702402929,120263
1702402929,71272
1702402937,126612
1702402938,171210
1702402941,230569
1702402945,137226
1702402945,167147
1702402946,138680
1702402947,312478
1702402950,312553
1702402950,172699
1702402951,68297
1702402958,106133
1702402959,103834
1702402959,151099
1702402966,113885
1702402996,73583
1702403003,75023
1702403005,76976
1702403012,83697
1702403013,91853
1702403019,107288
1702403019,67766
1702403019,236963
1702403019,90392
1702403020,70415
1702403026,88123
1702403026,59923
1702403030,103640
1702403031,641817
1702403032,86672
1702403032,82150
1702403033,73801
1702403033,113945
1702403036,98582
1702403036,94639
1702403075,1175193
1702403105,72114
1702403105,183745
1702403108,81923
1702403110,78241
1702403110,188560
1702403111,90385
1702403111,99143
1702403115,82177
1702403116,187127
1702403117,120436
1702403117,80622
1702403117,170216
1702403118,207800
1702403118,84870
1702403118,172679
1702403118,171427
1702403118,87901
1702403119,264520
1702403123,163865
1702403126,89410
1702403126,348739
1702403129,208518
1702403130,116433
1702403130,111197
1702403130,127374
1702403131,172410
1702403155,135481
1702403177,66537
1702403182,71122
1702403182,176893
1702403183,72673
1702403183,150214
1702403188,62139
1702403194,118926
1702403197,74227
1702403197,80386
1702403197,77499
1702403204,73438
1702403205,337580
1702403205,49783
1702403206,80472
1702403214,105831
1702403215,96939
1702403224,93438
1702403233,103555
1702403255,139943
1702403255,136973
1702403255,136919
1702403255,72710
1702403255,72926
1702403261,143363
1702403261,235097
1702403265,59922
1702403266,135922
1702403266,68979
1702403267,60777
1702403267,63082
1702403267,61911
1702403277,61356
1702403279,81668
1702403280,163395
1702403286,62059
1702403303,108586
1702403304,48183
1702403304,115382
1702403305,122776
1702403306,44563
1702403341,74384
1702403341,86869
1702403342,1423770
1702403350,94949
1702403352,91051
1702403353,236613
1702403355,87492
1702403358,102450
1702403359,53118
1702403359,638263
1702403360,93705
1702403362,96926
1702403362,57152
1702403363,232608
1702403372,195489
1702403372,139458
1702403373,105023
1702403412,133319
1702403413,108663
1702403416,63130
1702403416,74774
1702403417,162498
1702403417,57477
1702403418,137546
1702403424,209682
1702403424,82382
1702403425,69776
1702403427,140850
1702403428,86428
1702403428,66246
1702403430,247092
1702403433,60472
1702403433,75025
1702403433,60440
1702403435,83178
1702403440,163594
1702403446,73668
1702403449,86799
1702403483,66868
1702403483,67014
1702403483,66246
1702403490,72064
1702403490,77385
1702403495,69720
1702403496,63190
1702403498,70083
1702403498,74360
1702403499,74529
1702403499,81951
1702403499,58912
1702403499,53124
1702403500,67111
1702403504,199878
1702403504,141318
1702403504,238047
1702403505,76962
1702403505,75355
1702403505,92971
1702403505,202440
1702403565,367837
1702403575,85120
1702403575,79199
1702403576,556671
1702403580,75180
1702403592,481385
1702403593,159481
1702403593,1053731
1702403593,875794
1702403593,103440
1702403594,95735
1702403594,94373
1702403607,180304
1702403608,108875
1702403612,106581
1702403614,263686
1702403626,120473
1702403627,61721
1702403627,51655
1702403627,123899
1702403629,609905
1702403634,53104
1702403634,58460
1702403637,153977
1702403638,518901
1702403638,154471
1702403638,62974
1702403639,44724
1702403642,137366
1702403642,141796
1702403653,154042
1702403657,63659
1702403669,220140
1702403689,77168
1702403696,87959
1702403696,192232
1702403697,82901
1702403704,111153
1702403704,112139
1702403705,78049
1702403705,67708
1702403707,72662
1702403707,53548
1702403709,72058
1702403709,71250
1702403710,71539
1702403710,71132
1702403710,53533
1702403711,41548
1702403714,121239
1702403759,131044
1702403776,270935
1702403786,144012
1702403786,75088
1702403786,80855
1702403787,352018
1702403788,91964
1702403788,1229662
1702403788,77427
1702403789,74222
1702403790,80066
1702403790,156028
1702403790,290422
1702403790,85394
1702403791,674714
1702403797,87103
1702403797,167408
1702403797,86877
1702403798,93859
1702403798,299739
1702403798,172250
1702403798,204955
1702403799,204996
1702403800,440579
1702403832,122164
1702403836,476854
1702403844,137029
1702403855,63718
1702403855,58351
1702403855,749973
1702403862,154730
1702403863,158272
1702403866,76622
1702403868,80492
1702403874,390140
1702403886,86063
1702403891,47308
1702403891,194981
1702403893,94492
1702403894,107739
1702403896,108510
1702403896,97997
1702403896,99495
1702403896,105858
1702403898,108721
1702403899,793540
1702403899,67540
1702403921,52556
1702403945,82472
1702403945,146937
1702403950,162796
1702403952,164103
1702403952,55797
1702403952,155339
1702403955,166377
1702403956,89157
1702403956,259198
1702403957,60702
1702403958,64037
1702403958,159503
1702403961,175187
1702403964,166192
1702403964,90472
1702403964,68011
1702403982,85400
1702403982,90219
1702403982,95694
1702404021,122157
1702404028,238376
1702404032,80368
1702404032,74327
1702404033,247616
1702404034,134982
1702404036,53844
1702404039,118172
1702404052,87705
1702404052,96229
1702404052,95342
1702404053,95920
1702404053,198483
1702404059,196896
1702404059,76762
1702404059,160678
1702404096,44006
1702404096,61681
1702404098,65499
1702404098,147199
1702404099,137811
1702404099,153504
1702404101,47759
1702404107,143235
1702404108,272006
1702404110,58213
1702404111,165842
1702404112,147291
1702404112,155553
1702404112,79878
1702404112,59809
1702404112,53555
1702404114,92047
1702404114,54597
1702404114,132095
1702404117,1627512
1702404121,62420
1702404125,170102
1702404125,366563
1702404125,234067
1702404125,71948
1702404127,232947
1702404139,43383
1702404140,106402
1702404185,73163
1702404190,49648
1702404190,90638
1702404190,94054
1702404191,93376
1702404209,111339
1702404213,174024
1702404214,102742
1702404223,115308
1702404227,101207
1702404232,119824
1702404232,120466
1702404232,124503
1702404232,204192
1702404233,122237
1702404234,48201
1702404236,111095
1702404238,136604
1702404239,49348
1702404240,127496
1702404240,119067
1702404240,50672
1702404241,141627
1702404242,51978
1702404242,127915
1702404242,128271
1702404242,125015
1702404242,51002
1702404243,129501
1702404245,617800
1702404246,106244
1702404251,215031
1702404261,653947
1702404287,334974
1702404320,73931
1702404320,82185
1702404320,86556
1702404321,80440
1702404321,79057
1702404321,79051
1702404321,196008
1702404323,81868
1702404325,1737880
1702404326,93664
1702404326,684126
1702404326,93893
1702404328,86328
1702404328,91940
1702404330,88029
1702404333,123875
1702404368,241290
1702404378,1905691
1702404383,62044
1702404390,63989
1702404393,71649
1702404397,271606
1702404398,158852
1702404399,78484
1702404401,79755
1702404401,68122
1702404401,139988
1702404401,168019
1702404402,78985
1702404402,75803
1702404402,73666
1702404402,72085
1702404403,76561
1702404403,74620
1702404403,157381
1702404403,116028
1702404404,153284
1702404404,715066
1702404404,452294
1702404415,638830
1702404446,121139
1702404455,134283
1702404468,53535
1702404469,66965
1702404469,613560
1702404469,65552
1702404478,87839
1702404478,77090
1702404478,76072
1702404478,158185
1702404479,76304
1702404479,77704
1702404482,78140
1702404483,104957
1702404483,81778
1702404491,89571
1702404492,172051
1702404492,109150
1702404493,90050
1702404494,126137
1702404497,41515
1702404504,99848
1702404505,58165
1702404509,107755
1702404536,53703
1702404537,57428
1702404540,61229
1702404541,138466
1702404553,84570
1702404553,151453
1702404553,60939
1702404554,48943
1702404554,75777
1702404554,44757
1702404554,71036
1702404554,61240
1702404555,86196
1702404556,151941
1702404556,52492
1702404559,345714
1702404571,173724
1702404572,461678
1702404572,329936
1702404625,1130014
1702404627,72910
1702404627,383432
1702404627,394871
1702404635,63259
1702404635,94989
1702404635,62946
1702404635,138738
1702404638,147722
1702404638,85035
1702404639,161077
1702404640,81428
1702404640,171684
1702404641,84427
1702404643,416860
1702404656,102545
1702404666,129649
1702404666,171569
1702404671,272646
1702404673,119876
1702404673,136451
1702404674,181471
1702404688,61413
1702404688,49841
1702404697,61422
1702404704,68901
1702404704,471659
1702404706,49754
1702404713,72237
1702404713,86234
1702404714,75044
1702404717,51561
1702404720,53450
1702404721,80762
1702404725,53512
1702404725,183453
1702404728,92316
1702404728,39666
1702404728,88885
1702404728,54853
1702404729,93520
1702404730,56720
1702404762,522675
1702404762,363489
1702404763,138681
1702404779,65313
1702404788,148022
1702404789,310665
1702404789,574172
1702404791,313578
1702404804,75963
1702404804,83413
1702404807,79682
1702404818,56358
1702404818,98840
1702404819,595703
1702404819,262102
1702404819,122656
1702404823,354972
1702404824,150175
1702404824,2350048
1702404827,971834
1702404827,65426
1702404829,40924
1702404839,134679
1702404839,47215
1702404840,76258
1702404854,460745
1702404866,61063
1702404866,152872
1702404873,49502
1702404876,72029
1702404877,47345
1702404877,58419
1702404878,149046
1702404878,89337
1702404878,251241
1702404879,55094
1702404879,148211
1702404879,59454
1702404888,160069
1702404896,57030
1702404918,78640
1702404925,106830
1702404934,67963
1702404944,117263
1702404944,66203
1702404949,125460
1702404949,141596
1702404950,236790
1702404961,42232
1702404963,124381
1702404963,86434
1702404966,322193
1702404966,87169
1702404967,88322
1702404968,42926
1702404969,91825
1702404969,89979
1702404969,90332
1702404969,115085
1702404969,80481
1702404970,91720
1702404970,190964
1702404970,265991
1702404972,95233
1702404979,190789
1702404983,86744
1702405013,324341
1702405027,543771
1702405035,64646
1702405039,313872
1702405039,89996
1702405040,72335
1702405040,322462
1702405040,60673
1702405044,472962
1702405044,93386
1702405044,75531
1702405044,490443
1702405046,96400
1702405046,111895
1702405046,63538
1702405051,83053
1702405052,85790
1702405065,52817
1702405072,109337
1702405105,59354
1702405111,72034
1702405116,147529
1702405120,74340
1702405120,73903
1702405120,68885
1702405120,76354
1702405120,80053
1702405120,68175
1702405128,84185
1702405128,83122
1702405128,63012
1702405130,166854
1702405130,160779
1702405131,91402
1702405131,161689
1702405131,312259
1702405131,162066
1702405133,88979
1702405165,125365
1702405166,59821
1702405166,45553
1702405167,131703
1702405167,195404
1702405172,131798
1702405173,56508
1702405186,113656
1702405219,99494
1702405220,89592
1702405220,91710
1702405220,91788
1702405221,89902
1702405221,92067
1702405227,95843
1702405227,95738
1702405227,96000
1702405234,67138
1702405235,290955
1702405236,115010
1702405237,104329
1702405237,106599
1702405238,127075
1702405239,74365
1702405240,212355
1702405241,74253
1702405243,77094
1702405244,275104
1702405254,88041
1702405254,133521
1702405286,65828
1702405299,571181
1702405306,185774
1702405306,86420
1702405307,67568
1702405307,69648
1702405308,67159
1702405309,88730
1702405309,73522
1702405309,65591
1702405309,348853
1702405310,82769
1702405311,138298
1702405311,124982
1702405311,76758
1702405313,59671
1702405314,343983
1702405314,93217
1702405314,76585
1702405318,75221
1702405319,491305
1702405324,103800
